country_decisions = {

	change_magic_organization_decentralized = {
		potential = {
			has_estate = estate_mages
			NOT = { has_country_modifier = mage_organization_decentralized }
		}
		allow = {
			is_at_war = no
			stability = 2
			NOT = {
				estate_influence = {
					estate = estate_mages
					influence = 40
				}
			}
			adm_power = 100
		}
		effect = {
			add_adm_power = 100
			clear_mage_organization_effect = yes
			set_country_flag = mage_organization_decentralized_flag
			add_country_modifier = { 
				name = mage_organization_decentralized 
				duration = -1 
			}
			add_estate_loyalty = {
				estate = estate_mages
				loyalty = 20
			}
			if = {
				limit = {
					exists = A85
					has_country_modifier = mage_organization_magisterium
				}
				A85 = {
					add_opinion = {
						who = ROOT
						modifier = expelled_the_magisterium
						years = 20
					}
				}
			}
		}
		ai_will_do = {
			factor = 1
			modifier = {
				factor = 0
				estate_loyalty = {	#dont do it if they're neutral or above
						estate = estate_mages
						loyalty = 40
				}
			}
		}
	}
	
	change_magic_organization_centralized = {
		potential = {
			has_estate = estate_mages
			NOT = { has_country_modifier = mage_organization_centralized }
			NOT = { has_country_modifier = mage_organization_magisterium }
		}
		allow = {
			is_at_war = no
			stability = 2
			NOT = {
				estate_influence = {
					estate = estate_mages
					influence = 30
				}
			}
			adm_power = 200
		}
		effect = {
			add_adm_power = -200
			clear_mage_organization_effect = yes
			set_country_flag = mage_organization_centralized_flag
			add_country_modifier = { 
				name = mage_organization_centralized 
				duration = -1 
			}
			add_estate_loyalty = {
				estate = estate_mages
				loyalty = -20
			}
		}
		ai_will_do = {
			factor = 1
			modifier = {
				factor = 0
				estate_loyalty = {	#dont do it if they're neutral or above
						estate = estate_mages
						loyalty = 40
				}
			}
		}
	}
	
	change_magic_organization_magisterium = {
		potential = {
			has_estate = estate_mages
			NOT = { has_country_modifier = mage_organization_centralized }
			NOT = { has_country_modifier = mage_organization_magisterium }
		}
		allow = {
			is_at_war = no
			stability = 2
			NOT = {
				estate_influence = {
					estate = estate_mages
					influence = 20
				}
			}
			adm_power = 200
			if = {
				limit = {
					exists = A85
				}
				A85 = {
					has_opinion = {
						who = ROOT
						value = 150
					}
				}
			}
		}
		effect = {
			add_adm_power = -200
			clear_mage_organization_effect = yes
			set_country_flag = mage_organization_magisterium_flag
			add_country_modifier = { 
				name = mage_organization_magisterium 
				duration = -1 
			}
			add_estate_loyalty = {
				estate = estate_mages
				loyalty = -20
			}
			if = {
				limit = {
					exists = A85
				}
				A85 = {
					add_opinion = {
						who = ROOT
						modifier = welcomed_the_magisterium
						years = 20
					}
				}
			}
		}
		ai_will_do = {
			factor = 1
			modifier = {
				factor = 0
				estate_loyalty = {	#dont do it if they're neutral or above
						estate = estate_mages
						loyalty = 40
				}
			}
		}
	}
	
	
	
	
	expel_the_mages = {
		potential = {
			has_estate = estate_mages
		}
		allow = {
			NOT = {
				estate_influence = {
					estate = estate_mages
					influence = 5
				}
			}
			NOT = { has_country_modifier = expelled_mages }
			NOT = { has_reform = magocracy_reform }
			NOT = { has_reform = magisterium_reform }
		}
		effect = {
			clear_mage_organization_effect = yes
			add_country_modifier = { 
				name = expelled_mages 
				duration = 7300
			}
			set_country_flag = banned_magic
			if = {
				limit = {
					exists = A85
					has_country_modifier = mage_organization_magisterium
				}
				A85 = {
					add_opinion = {
						who = ROOT
						modifier = expelled_the_magisterium
						years = 20
					}
				}
			}
			
			#gets rid of all mages advisors and stuffs in your country
			if = {
				limit = {
					advisor = court_mage
				}
				kill_advisor = court_mage
			}
			if = {
				limit = {
					has_leader_with = {
						trait = war_wizard_personality
					}
				}
				kill_leader  = {
					type = general
				}
			}
		}
		ai_will_do = {
			factor = 1
			modifier = {
				factor = 0
				estate_loyalty = {	#dont do it if they're neutral or above
						estate = estate_mages
						loyalty = 10
				}
			}
		}
	}
	
	welcome_the_mages = {
		potential = {
			NOT = { has_country_modifier = expelled_mages }
			NOT = { has_estate = estate_mages }
			NOT = { has_country_modifier = monstrous_nation }
			NOT = { 
				culture_group = bulwari
				is_vassal = yes
			}
			has_country_flag = banned_magic
		}
		allow = {
			stability = 3
		}
		effect = {
			clr_country_flag = banned_magic
			if = {
				limit = {
					is_part_of_hre = yes
				}
				set_country_flag = mage_organization_magisterium_flag
				add_country_modifier = { 
					name = mage_organization_magisterium 
					duration = -1 
				}
			}
			else = {
				set_country_flag = mage_organization_decentralized_flag
				add_country_modifier = { 
					name = mage_organization_decentralized 
					duration = -1 
				}
			}
		}
		ai_will_do = {
			factor = 1
			modifier = {
				factor = 0
				ruler_has_personality = cruel_personality
			}
			modifier = {
				factor = 0
				ruler_has_personality = greedy_personality
			}
			modifier = {
				factor = 0
				ruler_has_personality = malevolent_personality
			}
			modifier = {
				factor = 0
				ruler_has_personality = zealot_personality
			}
			modifier = {
				factor = 0
				estate_influence = {
					estate = estate_artificers
					influence = 50
				}
			}
			modifier = {
				factor = 0
				current_age = age_of_revolutions
			}
		}
	}


}